<svg width="40" height="40" viewBox="0 0 40 40" fill="none" xmlns="http://www.w3.org/2000/svg">
<path fill-rule="evenodd" clip-rule="evenodd" d="M20 0C8.95431 0 0 8.95431 0 20C0 31.0457 8.95431 40 20 40C31.0457 40 40 31.0457 40 20C40 8.95431 31.0457 0 20 0ZM15.6027 9.39778C16.7405 9.346 17.1041 9.33333 20.001 9.33333H19.9977C22.8955 9.33333 23.2577 9.346 24.3955 9.39778C25.5311 9.44978 26.3066 9.62956 26.9866 9.89334C27.6889 10.1656 28.2822 10.53 28.8755 11.1234C29.4689 11.7162 29.8333 12.3114 30.1067 13.0129C30.3689 13.6912 30.5489 14.4663 30.6022 15.6018C30.6533 16.7396 30.6667 17.1032 30.6667 20.0001C30.6667 22.897 30.6533 23.2597 30.6022 24.3975C30.5489 25.5326 30.3689 26.308 30.1067 26.9864C29.8333 27.6877 29.4689 28.2829 28.8755 28.8758C28.2829 29.4691 27.6886 29.8344 26.9873 30.1069C26.3086 30.3707 25.5326 30.5504 24.397 30.6024C23.2593 30.6542 22.8968 30.6669 19.9997 30.6669C17.103 30.6669 16.7396 30.6542 15.6018 30.6024C14.4665 30.5504 13.6912 30.3707 13.0125 30.1069C12.3114 29.8344 11.7162 29.4691 11.1236 28.8758C10.5305 28.2829 10.166 27.6877 9.89334 26.9862C9.62978 26.308 9.45 25.5328 9.39778 24.3973C9.34622 23.2595 9.33333 22.897 9.33333 20.0001C9.33333 17.1032 9.34667 16.7394 9.39756 15.6016C9.44867 14.4665 9.62867 13.6912 9.89312 13.0127C10.1665 12.3114 10.5309 11.7162 11.1242 11.1234C11.7171 10.5302 12.3123 10.1658 13.0138 9.89334C13.692 9.62956 14.4672 9.44978 15.6027 9.39778Z" fill="white"/>
<path fill-rule="evenodd" clip-rule="evenodd" d="M19.0442 11.2556C19.23 11.2553 19.4299 11.2554 19.6456 11.2555L20.0011 11.2556C22.8492 11.2556 23.1867 11.2658 24.3114 11.3169C25.3514 11.3645 25.9159 11.5383 26.2919 11.6843C26.7896 11.8776 27.1445 12.1087 27.5176 12.482C27.891 12.8554 28.1221 13.2109 28.3159 13.7087C28.4619 14.0843 28.6359 14.6487 28.6832 15.6887C28.7343 16.8132 28.7454 17.151 28.7454 19.9977C28.7454 22.8444 28.7343 23.1822 28.6832 24.3066C28.6357 25.3466 28.4619 25.9111 28.3159 26.2866C28.1225 26.7844 27.891 27.1389 27.5176 27.512C27.1443 27.8853 26.7899 28.1164 26.2919 28.3098C25.9163 28.4564 25.3514 28.6298 24.3114 28.6773C23.1869 28.7284 22.8492 28.7395 20.0011 28.7395C17.1529 28.7395 16.8153 28.7284 15.6909 28.6773C14.6508 28.6293 14.0864 28.4555 13.7102 28.3095C13.2124 28.1162 12.8568 27.8851 12.4835 27.5118C12.1102 27.1384 11.879 26.7837 11.6853 26.2857C11.5393 25.9102 11.3653 25.3457 11.3179 24.3057C11.2668 23.1813 11.2566 22.8435 11.2566 19.995C11.2566 17.1465 11.2668 16.8105 11.3179 15.6861C11.3655 14.6461 11.5393 14.0816 11.6853 13.7056C11.8786 13.2078 12.1102 12.8523 12.4835 12.4789C12.8568 12.1056 13.2124 11.8745 13.7102 11.6807C14.0862 11.534 14.6508 11.3607 15.6909 11.3129C16.6749 11.2685 17.0562 11.2551 19.0442 11.2529V11.2556ZM25.6949 13.0267C24.9882 13.0267 24.4149 13.5994 24.4149 14.3063C24.4149 15.013 24.9882 15.5863 25.6949 15.5863C26.4016 15.5863 26.9749 15.013 26.9749 14.3063C26.9749 13.5996 26.4016 13.0263 25.6949 13.0263V13.0267ZM14.5233 20.0001C14.5233 16.975 16.9758 14.5224 20.0009 14.5223C23.026 14.5223 25.4781 16.975 25.4781 20.0001C25.4781 23.0253 23.0263 25.4768 20.0011 25.4768C16.976 25.4768 14.5233 23.0253 14.5233 20.0001Z" fill="white"/>
<path fill-rule="evenodd" clip-rule="evenodd" d="M20.0011 16.4445C21.9647 16.4445 23.5567 18.0363 23.5567 20.0001C23.5567 21.9637 21.9647 23.5557 20.0011 23.5557C18.0374 23.5557 16.4456 21.9637 16.4456 20.0001C16.4456 18.0363 18.0374 16.4445 20.0011 16.4445V16.4445Z" fill="white"/>
</svg>
